"id"	"sn"	"name"	"price"	"num"	"alert_num"	"image"	"images"	"weight"	"create_time"	"update_time"	"spu_id"	"category_id"	"category_name"	"brand_name"	"spec"	"sale_num"	"comment_num"	"status" "is_delete"
"100000006163"		"巴布豆(BOBDOG)柔薄悦动婴儿拉拉裤XXL码80片(15kg以上)"	"1"	"9995"	"100"	"https://m.360buyimg.com/mobilecms/s720x720_jfs/t23998/350/2363990466/222391/a6e9581d/5b7cba5bN0c18fb4f.jpg!q70.jpg.webp"	"https://m.360buyimg.com/mobilecms/s720x720_jfs/t23998/350/2363990466/222391/a6e9581d/5b7cba5bN0c18fb4f.jpg!q70.jpg.webp"	"10"	"1/5/2019 00:00:00"	"1/5/2019 00:00:00"	"10000000616300"	"757"	"拉拉裤"	"巴布豆"	"{}"	"5"	"0"	"1"	"0"
"100000015158"		"华为 HUAWEI 麦芒7 6G+64G 魅海蓝 全网通  前置智慧双摄  移动联通电信4G手机 双卡双待"	"40800"	"9996"	"100"	"https://m.360buyimg.com/mobilecms/s720x720_jfs/t22642/312/2563982615/103706/1398b13d/5b865bb3N0409f0d0.jpg!q70.jpg.webp"	"https://m.360buyimg.com/mobilecms/s720x720_jfs/t22642/312/2563982615/103706/1398b13d/5b865bb3N0409f0d0.jpg!q70.jpg.webp"	"10"	"1/5/2019 00:00:00"	"1/5/2019 00:00:00"	"10000001516600"	"0"	"手机"	"华为"	"{'颜色': '蓝色'}"	"4"	"0"	"1"	"0"
"100000015166"		"华为 HUAWEI 麦芒7 6G+64G 亮黑色 全网通  前置智慧双摄  移动联通电信4G手机 双卡双待"	"89200"	"9930"	"100"	"https://m.360buyimg.com/mobilecms/s720x720_jfs/t22642/312/2563982615/103706/1398b13d/5b865bb3N0409f0d0.jpg!q70.jpg.webp"	"https://m.360buyimg.com/mobilecms/s720x720_jfs/t22642/312/2563982615/103706/1398b13d/5b865bb3N0409f0d0.jpg!q70.jpg.webp"	"10"	"1/5/2019 00:00:00"	"1/5/2019 00:00:00"	"10000001516600"	"0"	"手机"	"华为"	"{'颜色': '黑色'}"	"70"	"0"	"1"	"0"
"100000154516"		"vivo Y81s 刘海全面屏 3GB+32GB 香槟金 移动联通电信4G手机"	"25300"	"10000"	"100"	"https://m.360buyimg.com/mobilecms/s720x720_jfs/t20707/78/2349564629/130172/50a245d8/5b8e00e2Nf0bcd624.jpg!q70.jpg.webp"	"https://m.360buyimg.com/mobilecms/s720x720_jfs/t20707/78/2349564629/130172/50a245d8/5b8e00e2Nf0bcd624.jpg!q70.jpg.webp"	"10"	"1/5/2019 00:00:00"	"1/5/2019 00:00:00"	"10000015453200"	"0"	"手机"	"vivo"	"{'颜色': '槟色'}"	"0"	"0"	"1"	"0"
"100000154532"		"vivo Y81s 刘海全面屏 3GB+32GB 香槟金 移动联通电信4G手机"	"79900"	"10000"	"100"	"https://m.360buyimg.com/mobilecms/s720x720_jfs/t20707/78/2349564629/130172/50a245d8/5b8e00e2Nf0bcd624.jpg!q70.jpg.webp"	"https://m.360buyimg.com/mobilecms/s720x720_jfs/t20707/78/2349564629/130172/50a245d8/5b8e00e2Nf0bcd624.jpg!q70.jpg.webp"	"10"	"1/5/2019 00:00:00"	"1/5/2019 00:00:00"	"10000015453200"	"0"	"手机"	"vivo"	"{'颜色': '槟色'}"	"0"	"0"	"1"	"0"
"100000030074"		"夕阳红防蓝光老花镜男女通用款 清新灰色时尚大框镜架不易折断老花眼镜E9004G 200度 灰色"	"99800"	"10000"	"100"	"https://m.360buyimg.com/mobilecms/s720x720_jfs/t26281/196/340140952/94362/c353173/5b8f6e63N56334c08.jpg!q70.jpg.webp"	"https://m.360buyimg.com/mobilecms/s720x720_jfs/t26281/196/340140952/94362/c353173/5b8f6e63N56334c08.jpg!q70.jpg.webp"	"10"	"1/5/2019 00:00:00"	"1/5/2019 00:00:00"	"10000018913700"	"0"	"老花镜"	"夕阳红"	"{'颜色': '灰色', '尺码': '200度'}"	"0"	"0"	"1"	"0"
"100000030092"		"夕阳红防蓝光老花镜男女通用款 清新灰色时尚大框镜架不易折断老花眼镜E9004G 300度 灰色"	"41700"	"10000"	"100"	"https://m.360buyimg.com/mobilecms/s720x720_jfs/t26281/196/340140952/94362/c353173/5b8f6e63N56334c08.jpg!q70.jpg.webp"	"https://m.360buyimg.com/mobilecms/s720x720_jfs/t26281/196/340140952/94362/c353173/5b8f6e63N56334c08.jpg!q70.jpg.webp"	"10"	"1/5/2019 00:00:00"	"1/5/2019 00:00:00"	"10000018913700"	"0"	"老花镜"	"夕阳红"	"{'颜色': '灰色', '尺码': '300度'}"	"0"	"0"	"1"	"0"
"100000030326"		"夕阳红防蓝光老花镜男女通用款 清新灰色时尚大框镜架不易折断老花眼镜E9004G 250度 灰色"	"23700"	"10000"	"100"	"https://m.360buyimg.com/mobilecms/s720x720_jfs/t26281/196/340140952/94362/c353173/5b8f6e63N56334c08.jpg!q70.jpg.webp"	"https://m.360buyimg.com/mobilecms/s720x720_jfs/t26281/196/340140952/94362/c353173/5b8f6e63N56334c08.jpg!q70.jpg.webp"	"10"	"1/5/2019 00:00:00"	"1/5/2019 00:00:00"	"10000018913700"	"0"	"老花镜"	"夕阳红"	"{'颜色': '灰色', '尺码': '250度'}"	"0"	"0"	"1"	"0"
"100000030608"		"夕阳红防蓝光老花镜男女通用款 清新灰色时尚大框镜架不易折断老花眼镜E9004G 150度 灰色"	"86100"	"10000"	"100"	"https://m.360buyimg.com/mobilecms/s720x720_jfs/t26281/196/340140952/94362/c353173/5b8f6e63N56334c08.jpg!q70.jpg.webp"	"https://m.360buyimg.com/mobilecms/s720x720_jfs/t26281/196/340140952/94362/c353173/5b8f6e63N56334c08.jpg!q70.jpg.webp"	"10"	"1/5/2019 00:00:00"	"1/5/2019 00:00:00"	"10000018913700"	"0"	"老花镜"	"夕阳红"	"{'颜色': '灰色', '尺码': '150度'}"	"0"	"0"	"1"	"0"
